{
	"module": "debitomancy",
	"author": "wunarg, draxius",
	"data": {
		"skills": [
			{
				"id": "debitomancy",
				"require": "g.debt>=10&&g.tier1>0",
				"desc": "Master that which is owed, and those who owe it",
				"level": 3,
				"run": {
					"stamina": 0.5,
					"debt": 1
				},
				"result": {
					"sp": 0.05
				},
				"mod": {
					"debt.max": 100,
					"research.max": 5
				}
			}
		],
		"tasks": [
			{
				"id": "burningrecords",
				"name": "ever burning records",
				"actname": "burning records",
				"require": "g.debitomancy>=6&&g.firelore>=7&&g.languages>=7",
				"craftable": true,
				"desc": "Accumulated records of your debt, forever burning, erasing",
				"length": 120,
				"max": 1,
				"cost": {
					"tomes": 2
				},
				"run": {
					"stamina": 2,
					"scrolls": 1,
					"fire": 0.5
				},
				"effect": {
					"debitomancy.exp": 0.5
				},
				"mod": {
					"debt.convert.output.effect.debt": -0.00015,
					"debitomancy.max": 2,
					"debitomancy.rate": 0.5,
					"firelore.max": 1,
					"firelore.rate": 0.5
				},
				"flavor": "The unending scrolls malicious counterpart."
			},
			{
				"id": "borrowmoney",
				"name": "Borrow Money",
				"desc": "Borrow some fast money from people you know",
				"verb": "borrowing",
				"perpetual": true,
				"require": "g.shopkeeping>=6||g.debitomancy>=1",
				"run": {
					"debt": 20
				},
				"effect": {
					"gold": 20
				}
			},
			{
				"id": "prisonlabor",
				"name": "prison Labor",
				"desc": "Manual labor to pay off your debt, a horrific thought for any self-respecting wizard",
				"verb": "cracking rocks",
				"require": "g.debitomancy>=1",
				"perpetual": true,
				"need": "g.debt>=1",
				"length": 20,
				"at": {
					"20": {
						"run.stamina": -0.2
					},
					"50": {
						"result.debt": -5
					}
				},
				"run": {
					"stamina": 1,
					"hp": 0.1
				},
				"result": {
					"debt": -10
				},
				"flavor": "No magic allowed, since the chronomancy incident."
			},
			{
				"id": "encase_debt",
				"name": "Expand Accounting Logs",
				"desc": "Perhaps another set of books can throw off the debt collectors?",
				"verb": "inking papers",
				"require": "g.debitomancy>=10",
				"perpetual": true,
				"length": 15,
				"cost": {
					"scrolls": "5+g.encase_debt*0.5",
					"codices": "1+g.encase_debt*0.1",
					"tomes": "0.1+g.encase_debt*0.01"
				},
				"run": {
					"stamina": 1,
					"research": 5
				},
				"mod": {
					"debitomancy.max": 0.02,
					"encase_debt.length": 5,
					"encase_debt.result.debt": -1,
					"encase_debt.run.research": 0.5
				},
				"at": {
					"50": {
						"mod.debtrevelation.mod.voidlore.max": 0.004
					}
				},
				"result": {
					"debt": -1
				},
				"flavor": "This paper trail never seems to end... and keeps getting more expensive!"
			},
			{
				"id": "lendgold",
				"name": "lend Gold",
				"desc": "Lend gold to needy and foolish",
				"verb": "moneylending",
				"require": "g.debitomancy>=3",
				"length": 20,
				"at": {
					"20": {
						"length": -2,
						"run.stamina": -0.2
					}
				},
				"cost": {
					"gold": 200
				},
				"run": {
					"stamina": 1
				},
				"result": {
					"gold": "150~300"
				}
			}
		],
		"upgrades": [
			{
				"id": "moredebt",
				"name": "more lenders",
				"desc": "Find more people to lend you money",
				"require": "g.debitomancy>=2",
				"max": 5,
				"cost": {
					"research": 1000,
					"gold": 500,
					"gems": 10
				},
				"mod": {
					"debt.max": 500,
					"borrowmoney.run.debt": 10,
					"borrowmoney.effect.gold": 10
				}
			},
			{
				"id": "creativeaccounting",
				"name": "creative accounting",
				"desc": "Just a few rounding errors here and there",
				"require": "g.debitomancy>=4",
				"max": 1,
				"cost": {
					"research": 1000,
					"gold": 500,
					"scrolls": 40
				},
				"mod": {
					"debt.convert.output.effect.debt": -0.0001
				}
			},
			{
				"id": "cheaperdebt",
				"name": "better lenders",
				"desc": "With enough research you can find money lenders which don't have such ridiculous interest rates",
				"require": "g.debitomancy>=6",
				"max": 1,
				"cost": {
					"research": 2000
				},
				"mod": {
					"debt.convert.input.gold": -0.0001,
					"debitomancy.max": 0.5
				}
			},
			{
				"id": "debttravel",
				"name": "debtor's travels",
				"desc": "If you travel far enough surely they can't find you again",
				"require": "g.debitomancy>=3&&g.a_travel>0",
				"max": 1,
				"cost": {
					"research": 500
				},
				"mod": {
					"a_travel.effect.debt": -0.5,
					"debitomancy.max": 0.5
				}
			},
			{
				"id": "debttrickery",
				"name": "debtor's trickery",
				"desc": "Fast money and faster hands make your debt disappear more quickly.",
				"require": "g.debitomancy>=5&&g.trickery>=2",
				"warn": true,
				"warnMsg": "Debt and gold decreases from removing debt will both be faster with this upgrade",
				"max": 1,
				"cost": {
					"research": 500
				},
				"mod": {
					"trickery.mod.debt.convert.output.effect.debt": -0.0001,
					"trickery.mod.debt.convert.input.gold": 0.0001,
					"debitomancy.max": 0.5
				},
				"flavor": "Fake names, fake thoughts, whatever is needed to escape the debt"
			},
			{
				"id": "debtgeomancy",
				"name": "enchanted shackles",
				"desc": "Sneak a geomancy enchantment into the prison labor camps to make it a bit easier",
				"require": "g.earthlore>=7&&g.debitomancy>=6",
				"max": 1,
				"cost": {
					"earthgem": 2,
					"research": 500
				},
				"mod": {
					"prisonlabor.run.stamina": -0.5,
					"prisonlabor.result.debt": -5,
					"debitomancy.max": 0.5
				}
			},
			{
				"id": "debtmurder",
				"name": "debtor's murder",
				"desc": "You don't owe debts to corpses",
				"require": "g.debitomancy>=2&&g.murder>0",
				"max": 1,
				"cost": {
					"research": 350,
					"bodies": 3
				},
				"mod": {
					"murder.result.debt": -2,
					"debitomancy.max": 0.5
				}
			},
			{
				"id": "debtdemon",
				"name": "demonic money lending",
				"desc": "flesh and souls are totally acceptable collaterals",
				"require": "g.debitomancy>=2&&g.demonology>=7&&g.souls>0",
				"max": 1,
				"cost": {
					"research": 1200,
					"bonedust": 10
				},
				"mod": {
					"lendgold.result.souls": 0.1,
					"lendgold.result.bodies": 0.1,
					"debt.max": 250,
					"debitomancy.max": 0.5
				},
				"flavor": "The pound of flesh, which I demand of him, is dearly bought; 'tis mine and I will have it."
			},
			{
				"id": "debtvirtuous",
				"name": "virtuous credibility",
				"desc": "When people trust you debt payments can be slowed a bit",
				"need": "(g.virtue - g.evilamt)>=50",
				"require": "g.debitomancy>=4&&g.evil2==0&&g.good1==1",
				"max": 1,
				"cost": {
					"research": 500,
					"gold": 1000
				},
				"mod": {
					"debt.convert.input.gold": -0.0002,
					"debt.max": 250,
					"debitomancy.max": 0.5
				}
			},
			{
				"id": "curselendgold",
				"name": "cursed gold",
				"desc": "Mark your gold with terrible curses befalling those who don't pay back their debts to you",
				"require": "g.debitomancy>=4&&g.shadowlore>=6",
				"max": 1,
				"cost": {
					"research": 1000,
					"gold": 300,
					"shadowgem": 5
				},
				"mod": {
					"lendgold.result.gold.min": 50,
					"debitomancy.max": 0.5
				}
			},
			{
				"id": "planarlendgold",
				"name": "interplanar lending",
				"desc": "Extend your money lending services to other planes",
				"require": "g.debitomancy>=5&&g.planeslore>=10",
				"max": 1,
				"cost": {
					"research": 2000,
					"gold": 1000,
					"managem": 5
				},
				"mod": {
					"lendgold.result.gold.max": 250,
					"lendgold.result.gold.min": 200,
					"lendgold.cost.gold": 200,
					"debitomancy.max": 0.5
				}
			},
			{
				"id": "animallendgold",
				"name": "ursine enforcement clause",
				"desc": "Pursuant to the clause 3:3:63 of the standard lending contract, lapses in repayment may result in punitive damages to be delivered by ursa horribilis.",
				"require": "g.debitomancy>=9&&g.animals>=12",
				"max": 1,
				"cost": {
					"research": 4000,
					"gold": 3000,
					"naturegem": 10
				},
				"mod": {
					"lendgold.result.gold.max": 150,
					"lendgold.cost.herbs": 1,
					"debitomancy.max": 0.5
				},
				"flavor": "Debtors exit, pursued by a bear."
			},
			{
				"id": "debtrevelation",
				"name": "debtor's revelation",
				"desc": "What happens when you have less than nothing",
				"require": "g.debitomancy>=5&&g.voidlore>0",
				"warn": true,
				"max": 1,
				"cost": {
					"research": 10000,
					"managem": 20,
					"debt": 100
				},
				"mod": {
					"debt.mod.voidlore.max": 0.0004,
					"debt.rate": 0.1
				},
				"convert": {
					"input": {
						"gold": 0.01
					},
					"output": {
						"effect": {
							"debt": -0.01
						}
					}
				}
			}
		],
		"furniture": [
			{
				"id": "debttransmuter",
				"name": "debt transmuter",
				"desc": "Turn debt and gold into nothing",
				"require": "g.debitomancy>=5&&g.voidlore>=3&&g.debtrevelation>0",
				"max": 3,
				"cost": {
					"gold": 1000,
					"gems": 40,
					"arcana": 5,
					"managem": 10
				},
				"convert": {
					"input": {
						"gold": 0.03,
						"debt": -0.03
					},
					"output": {
						"mod": {
							"void.rate": 0.03
						}
					}
				},
				"mod": {
					"space": 3,
					"debitomancy.max": 0.5
				}
			}
		],
		"resources": [
			{
				"id": "debt",
				"desc": "Debt is gnawing at you",
				"require": "g.debt>=1",
				"max": 500,
				"group": "adversities",
				"reverse": true,
				"convert": {
					"input": {
						"gold": 0.002
					},
					"output": {
						"effect": {
							"debt": -0.001
						}
					}
				}
			}
		]
	}
}