[
	{
		"origin": [
			"*"
		],
		"responseHeader": [
			"Content-Type"
		],
		"method": [
			"GET"
		],
		"maxAgeSeconds": 3600
	},
	{
		"origin": [
			"http://localhost"
		],
		"responseHeader": [
			"Content-Type"
		],
		"method": [
			"GET",
			"HEAD",
			"DELETE"
		],
		"maxAgeSeconds": 3600
	}
]